﻿{
  "dependencies": {
    "Microsoft.NETCore.UniversalWindowsPlatform": "5.2.2",
    "modernhttpclient": "2.4.2",
    "Xamarin.Forms": "2.4.0.280"
  },
  "frameworks": {
    "uap10.0.10586": {}
  },
  "runtimes": {
    "win10-arm": {},
    "win10-arm-aot": {},
    "win10-x86": {},
    "win10-x86-aot": {},
    "win10-x64": {},
    "win10-x64-aot": {}
  }
}